ESM 204 Homework 4: Calculating the SCC and Policy Choice under Uncertainty
…
Question 3

The SCC is the present discounted value of the stream of future damages caused by one additional ton of CO2. The Obama Administration used a discount rate of 3% to discount damages. Recently, New York State used a discount rate of 2%. Calculate and make a plot of the SCC (y-axis) against the discount rate (x-axis) for a reasonable range of discount rates. Explain the intuition for how the discount rate affects the SCC.

The formula to find the present discounted value of damages due to 1 ton of carbon dioxide up to the year 2100 is:

\[ Present Value = \sum_{t = 0}^{78}{\frac{D_t}{(1+r)^t}}\]

## # A tibble: 79 x 13
##     year difference_per_ton t_future present_value_01 present_value_02
##    <dbl>              <dbl>    <dbl>            <dbl>            <dbl>
##  1  2022              0.356        0            0.356            0.356
##  2  2023              0.493        1            0.488            0.483
##  3  2024              0.612        2            0.600            0.588
##  4  2025              0.715        3            0.694            0.674
##  5  2026              0.798        4            0.767            0.737
##  6  2027              0.864        5            0.823            0.783
##  7  2028              0.918        6            0.865            0.815
##  8  2029              0.966        7            0.901            0.841
##  9  2030              1.01         8            0.931            0.860
## 10  2031              1.05         9            0.957            0.876
## # ... with 69 more rows, and 8 more variables: present_value_03 <dbl>,
## #   present_value_04 <dbl>, present_value_05 <dbl>, present_value_06 <dbl>,
## #   present_value_07 <dbl>, present_value_08 <dbl>, present_value_09 <dbl>,
## #   present_value_1 <dbl>
…
